…
``` r
state_2010 <- brfss |> filter(year == "2010") 


state_2010_7 = state_2010 |> 
  group_by(state) |>
  count(state, name = "n_obs") |>
  filter(n_obs >= 7) 

state_2010_7
```

    ## # A tibble: 30 × 2
    ## # Groups:   state [30]
    ##    state n_obs
    ##    <chr> <int>
    ##  1 CA       24
    ##  2 CO       14
    ##  3 CT       10
    ##  4 FL       82
    ##  5 GA        8
    ##  6 HI        8
    ##  7 ID       12
    ##  8 KS        8
    ##  9 LA       10
    ## 10 MA       18
    ## # ℹ 20 more rows
…
# Calculate the average data value within each state for each year
average_data_by_state <- excellent_data |>
  group_by(year, state) |>
  summarise(average = mean(data_value))
```

    ## `summarise()` has grouped output by 'year'. You can override using the
    ## `.groups` argument.

``` r
average_data_by_state
```

    ## # A tibble: 443 × 3
    ## # Groups:   year [9]
    ##     year state average
    ##    <int> <chr>   <dbl>
    ##  1  2002 AK       27.9
    ##  2  2002 AL       18.5
    ##  3  2002 AR       24.1
    ##  4  2002 AZ       24.1
    ##  5  2002 CA       22.7
    ##  6  2002 CO       23.1
    ##  7  2002 CT       29.1
    ##  8  2002 DC       29.3
    ##  9  2002 DE       20.9
    ## 10  2002 FL       25.7
    ## # ℹ 433 more rows
…
